-------------------------------------------------------------------------------
Test set: TestSuite
-------------------------------------------------------------------------------
Tests run: 3, Failures: 1, Errors: 0, Skipped: 2, Time elapsed: 67.264 sec <<< FAILURE! - in TestSuite
testSetUp(com.google.hmePg.GoogleHomePageTest)  Time elapsed: 67.039 sec  <<< FAILURE!
org.openqa.selenium.WebDriverException: Failed to connect to binary FirefoxBinary(C:\Program Files\Mozilla Firefox\firefox.exe) on port 7055; process output follows: 
ile: blocklist is disabled
1524030495114	addons.manager	DEBUG	Starting provider: PreviousExperimentProvider
1524030495115	addons.manager	DEBUG	Registering shutdown blocker for PreviousExperimentProvider
1524030495115	addons.manager	DEBUG	Provider finished startup: PreviousExperimentProvider
1524030496444	addons.manager	DEBUG	Starting provider: <unnamed-provider>
1524030496444	addons.manager	DEBUG	Registering shutdown blocker for <unnamed-provider>
1524030496445	addons.manager	DEBUG	Provider finished startup: <unnamed-provider>
1524030496453	addons.xpi	INFO	Mapping fxdriver@googlecode.com to C:\Users\anilk\AppData\Local\Temp\anonymous5155104511056334024webdriver-profile\extensions\fxdriver@googlecode.com
1524030496454	addons.xpi	DEBUG	Ignoring file entry whose name is not a valid add-on ID: C:\Users\anilk\AppData\Local\Temp\anonymous5155104511056334024webdriver-profile\extensions\webdriver-staging
1524030496454	addons.xpi	DEBUG	Existing add-on fxdriver@googlecode.com in app-profile
1524030496455	addons.xpi	INFO	Mapping aushelper@mozilla.org to C:\Program Files\Mozilla Firefox\browser\features\aushelper@mozilla.org.xpi
1524030496455	addons.xpi	INFO	Mapping clicktoplay-rollout@mozilla.org to C:\Program Files\Mozilla Firefox\browser\features\clicktoplay-rollout@mozilla.org.xpi
1524030496455	addons.xpi	INFO	Mapping e10srollout@mozilla.org to C:\Program Files\Mozilla Firefox\browser\features\e10srollout@mozilla.org.xpi
1524030496455	addons.xpi	INFO	Mapping firefox@getpocket.com to C:\Program Files\Mozilla Firefox\browser\features\firefox@getpocket.com.xpi
1524030496456	addons.xpi	INFO	Mapping followonsearch@mozilla.com to C:\Program Files\Mozilla Firefox\browser\features\followonsearch@mozilla.com.xpi
1524030496456	addons.xpi	INFO	Mapping screenshots@mozilla.org to C:\Program Files\Mozilla Firefox\browser\features\screenshots@mozilla.org.xpi
1524030496456	addons.xpi	INFO	Mapping shield-recipe-client@mozilla.org to C:\Program Files\Mozilla Firefox\browser\features\shield-recipe-client@mozilla.org.xpi
1524030496456	addons.xpi	INFO	Mapping webcompat@mozilla.org to C:\Program Files\Mozilla Firefox\browser\features\webcompat@mozilla.org.xpi
1524030496457	addons.xpi	DEBUG	Existing add-on aushelper@mozilla.org in app-system-defaults
1524030496457	addons.xpi	DEBUG	Existing add-on clicktoplay-rollout@mozilla.org in app-system-defaults
1524030496458	addons.xpi	DEBUG	Existing add-on e10srollout@mozilla.org in app-system-defaults
1524030496458	addons.xpi	DEBUG	Existing add-on firefox@getpocket.com in app-system-defaults
1524030496459	addons.xpi	DEBUG	Existing add-on followonsearch@mozilla.com in app-system-defaults
1524030496459	addons.xpi	DEBUG	Existing add-on screenshots@mozilla.org in app-system-defaults
1524030496459	addons.xpi	DEBUG	Existing add-on shield-recipe-client@mozilla.org in app-system-defaults
1524030496459	addons.xpi	DEBUG	Existing add-on webcompat@mozilla.org in app-system-defaults
1524030496460	addons.xpi	INFO	Mapping {972ce4c6-7e08-4474-a285-3208198ce6fd} to C:\Program Files\Mozilla Firefox\browser\extensions\{972ce4c6-7e08-4474-a285-3208198ce6fd}.xpi
1524030496461	addons.xpi	DEBUG	Existing add-on {972ce4c6-7e08-4474-a285-3208198ce6fd} in app-global
1524030496461	addons.xpi	DEBUG	Existing add-on {4ED1F68A-5463-4931-9384-8FFF5ED91D92} in winreg-app-global
1524030496461	addons.xpi	DEBUG	getInstallState changed: false, state: {}
1524030496556	addons.productaddons	INFO	sending request to: https://aus5.mozilla.org/update/3/GMP/55.0.3/20170824053622/WINNT_x86_64-msvc-x64/en-US/release/Windows_NT%206.1.1.0%20(x64)/default/default/update.xml
1524030499094	addons.productaddons	INFO	Completed downloading document
1524030500415	addons.productaddons	INFO	downloadXHR File download. status=200
1524030500420	addons.productaddons	INFO	Downloaded file will be saved to C:\Users\anilk\AppData\Local\Temp\tmpaddon
1524030502977	addons.productaddons	INFO	downloadXHR File download. status=200
1524030502982	addons.productaddons	INFO	Downloaded file will be saved to C:\Users\anilk\AppData\Local\Temp\tmpaddon

Build info: version: '2.45.0', revision: '5017cb8e7ca8e37638dc3091b2440b90a1d8686f', time: '2015-02-27 09:10:26'
System info: host: 'PRASHANTC2', ip: '192.168.0.128', os.name: 'Windows 7', os.arch: 'amd64', os.version: '6.1', java.version: '1.8.0_121'
Driver info: driver.version: FirefoxDriver
	at org.openqa.selenium.firefox.internal.NewProfileExtensionConnection.start(NewProfileExtensionConnection.java:118)
	at org.openqa.selenium.firefox.FirefoxDriver.startClient(FirefoxDriver.java:246)
	at org.openqa.selenium.remote.RemoteWebDriver.<init>(RemoteWebDriver.java:114)
	at org.openqa.selenium.firefox.FirefoxDriver.<init>(FirefoxDriver.java:191)
	at org.openqa.selenium.firefox.FirefoxDriver.<init>(FirefoxDriver.java:186)
	at org.openqa.selenium.firefox.FirefoxDriver.<init>(FirefoxDriver.java:182)
	at org.openqa.selenium.firefox.FirefoxDriver.<init>(FirefoxDriver.java:95)
	at com.google.hmePg.GoogleHomePageTest.testSetUp(GoogleHomePageTest.java:18)

